.............................
----------------------------------------------------------------------
Ran 29 tests in 0.197s

OK
Name             Stmts   Miss Branch BrPart  Cover   Missing
------------------------------------------------------------
Collatz.py          48      0     20      0   100%
TestCollatz.py     113      0      0      0   100%
------------------------------------------------------------
TOTAL              161      0     20      0   100%
