1 10 20
100 200 125
201 210 89
900 1000 174
1 1 1
1000 900 174
1000 1001 143
9999 1 262
5 5498 238
3 9 20
10 11 15
11 10 15
9 3 20
10 1 20
893 66 179
422 50 144
180 17 125
404 42 144
480 5 144
405 56 144
977 51 179
589 38 144
357 70 144
611 79 144
75 46 116
931 34 179
692 35 145
22 66 113
644 88 144
819 37 171
124 66 119
222 80 125
494 48 144
643 68 144
37 12 112
222 97 125
291 44 128
499 81 144
378 15 144
38 66 113
478 31 144
491 21 144
278 18 128
104 26 119
883 30 179
798 25 171
541 39 144
824 53 171
868 83 171
591 37 144
903 13 179
256 59 128
137 92 122
564 12 144
543 87 144
45 13 112
98626 546 351
3724 30301 308
17808 11139 279
65506 14828 340
12257 85163 351
66589 56845 335
34885 90796 351
62574 13297 340
28243 17960 308
27665 81319 351
38142 85318 351
30091 37736 324
53873 19040 340
8646 86648 351
20950 56629 340
69391 12622 340
76194 28368 340
67172 18126 340
72589 33462 340
48123 2435 324
81811 55681 351
84668 41569 351
4044 92319 351
39945 32627 324
22729 62051 340
47916 76909 340
90238 38157 351
15791 65795 340
71157 93563 351
11354 77478 351
52578 32234 340
82821 71252 351
69925 97637 351
75299 10126 340
94917 78569 338
22795 10697 279
3829 87090 351
11686 47159 324
35473 75173 340
86828 43139 351
50076 74563 340
12033 39064 324
14531 60945 340
62335 37186 340
20760 37768 324
40326 43217 288
15959 83117 351
41367 49688 314
93706 92379 315
69029 71907 325
7641 20444 279
63247 8701 340
56351 68623 335
8044 59874 340
93710 10869 351
24577 96390 351
28312 65120 340
4904 76189 340
10794 43671 324
94379 33216 351
69599 44295 340
63021 10050 340
28045 77436 351
68181 42366 340
42664 10007 324
44434 76755 340
3072 31941 308
7159 91858 351
60412 95164 351
84659 5270 351
10985 3417 268
999999 999999 259
999999 1 525
999999 9999 525
